,0,1,micro avg,macro avg,weighted avg
f1-score,0.3225806451612903,0.6294117647058824,0.5209125475285171,0.4759962049335864,0.5582456115035246
precision,0.24,0.7753623188405797,0.5209125475285171,0.5076811594202899,0.6511908304402931
recall,0.4918032786885246,0.5297029702970297,0.5209125475285171,0.5107531244927772,0.5209125475285171
support,61.0,202.0,263.0,263.0,263.0
