,0,1,micro avg,macro avg,weighted avg
f1-score,0.5679012345679012,0.6289752650176679,0.6007604562737643,0.5984382497927845,0.6015732285421072
precision,0.552,0.644927536231884,0.6007604562737643,0.598463768115942,0.6032338127514191
recall,0.5847457627118644,0.6137931034482759,0.6007604562737643,0.5992694330800701,0.6007604562737643
support,118.0,145.0,263.0,263.0,263.0
