,0,1,micro avg,macro avg,weighted avg
f1-score,0.0,0.6882793017456359,0.5247148288973384,0.34413965087281795,0.6882793017456359
precision,0.0,1.0,0.5247148288973384,0.5,1.0
recall,0.0,0.5247148288973384,0.5247148288973384,0.2623574144486692,0.5247148288973384
support,0.0,263.0,263.0,263.0,263.0
