,mean_fit_time,std_fit_time,mean_score_time,std_score_time,param_C,param_gamma,params,split0_test_score,split1_test_score,split2_test_score,split3_test_score,split4_test_score,mean_test_score,std_test_score,rank_test_score,split0_train_score,split1_train_score,split2_train_score,split3_train_score,split4_train_score,mean_train_score,std_train_score
0,0.554747200012207,0.04657308570497874,0.14910669326782228,0.0021634502157048263,0.001,0.001,"{'C': 0.001, 'gamma': 0.001}",0.5253164556962026,0.5253164556962026,0.5222929936305732,0.5222929936305732,0.5222929936305732,0.5235069885641678,0.001482121429166998,3,0.5230524642289348,0.5230524642289348,0.5238095238095238,0.5238095238095238,0.5238095238095238,0.5235066999772882,0.00037088193546571063
1,0.6197554588317871,0.016644987998220038,0.15129694938659669,0.0032691399736197286,0.001,0.01,"{'C': 0.001, 'gamma': 0.01}",0.5253164556962026,0.5253164556962026,0.5222929936305732,0.5222929936305732,0.5222929936305732,0.5235069885641678,0.001482121429166998,3,0.5230524642289348,0.5230524642289348,0.5238095238095238,0.5238095238095238,0.5238095238095238,0.5235066999772882,0.00037088193546571063
2,0.6166605949401855,0.013445708690690533,0.1521928310394287,0.002409966052156811,0.001,0.1,"{'C': 0.001, 'gamma': 0.1}",0.5253164556962026,0.5253164556962026,0.5222929936305732,0.5222929936305732,0.5222929936305732,0.5235069885641678,0.001482121429166998,3,0.5230524642289348,0.5230524642289348,0.5238095238095238,0.5238095238095238,0.5238095238095238,0.5235066999772882,0.00037088193546571063
3,0.6581420421600341,0.02536661417142342,0.15578651428222656,0.005298992814876706,0.001,1,"{'C': 0.001, 'gamma': 1}",0.5253164556962026,0.5253164556962026,0.5222929936305732,0.5222929936305732,0.5222929936305732,0.5235069885641678,0.001482121429166998,3,0.5230524642289348,0.5230524642289348,0.5238095238095238,0.5238095238095238,0.5238095238095238,0.5235066999772882,0.00037088193546571063
4,0.6450851440429688,0.028341393245631563,0.15229439735412598,0.0033017487255866326,0.01,0.001,"{'C': 0.01, 'gamma': 0.001}",0.5253164556962026,0.5253164556962026,0.5222929936305732,0.5222929936305732,0.5222929936305732,0.5235069885641678,0.001482121429166998,3,0.5230524642289348,0.5230524642289348,0.5238095238095238,0.5238095238095238,0.5238095238095238,0.5235066999772882,0.00037088193546571063
5,0.6282278060913086,0.015355472496897428,0.15069851875305176,0.002684922526742679,0.01,0.01,"{'C': 0.01, 'gamma': 0.01}",0.5253164556962026,0.5253164556962026,0.5222929936305732,0.5222929936305732,0.5222929936305732,0.5235069885641678,0.001482121429166998,3,0.5230524642289348,0.5230524642289348,0.5238095238095238,0.5238095238095238,0.5238095238095238,0.5235066999772882,0.00037088193546571063
6,0.662831449508667,0.03309922653588679,0.15139784812927246,0.004448513842483266,0.01,0.1,"{'C': 0.01, 'gamma': 0.1}",0.5253164556962026,0.5253164556962026,0.5222929936305732,0.5222929936305732,0.5222929936305732,0.5235069885641678,0.001482121429166998,3,0.5230524642289348,0.5230524642289348,0.5238095238095238,0.5238095238095238,0.5238095238095238,0.5235066999772882,0.00037088193546571063
7,0.6708060264587402,0.03461582623870984,0.15299100875854493,0.004990739037504361,0.01,1,"{'C': 0.01, 'gamma': 1}",0.5253164556962026,0.5253164556962026,0.5222929936305732,0.5222929936305732,0.5222929936305732,0.5235069885641678,0.001482121429166998,3,0.5230524642289348,0.5230524642289348,0.5238095238095238,0.5238095238095238,0.5238095238095238,0.5235066999772882,0.00037088193546571063
8,0.6560493469238281,0.04438381510203327,0.149005126953125,0.0013926736638668405,0.1,0.001,"{'C': 0.1, 'gamma': 0.001}",0.5253164556962026,0.5253164556962026,0.5222929936305732,0.5222929936305732,0.5222929936305732,0.5235069885641678,0.001482121429166998,3,0.5230524642289348,0.5230524642289348,0.5238095238095238,0.5238095238095238,0.5238095238095238,0.5235066999772882,0.00037088193546571063
9,0.6447812557220459,0.018955664856563977,0.15518460273742676,0.007532350707660959,0.1,0.01,"{'C': 0.1, 'gamma': 0.01}",0.5253164556962026,0.5253164556962026,0.5222929936305732,0.5222929936305732,0.5222929936305732,0.5235069885641678,0.001482121429166998,3,0.5230524642289348,0.5230524642289348,0.5238095238095238,0.5238095238095238,0.5238095238095238,0.5235066999772882,0.00037088193546571063
10,0.6578410625457763,0.018178939999819628,0.1601715087890625,0.013596268296097927,0.1,0.1,"{'C': 0.1, 'gamma': 0.1}",0.5253164556962026,0.5253164556962026,0.5222929936305732,0.5222929936305732,0.5222929936305732,0.5235069885641678,0.001482121429166998,3,0.5230524642289348,0.5230524642289348,0.5238095238095238,0.5238095238095238,0.5238095238095238,0.5235066999772882,0.00037088193546571063
11,0.690260362625122,0.05862761166079974,0.15438647270202638,0.004478380764770295,0.1,1,"{'C': 0.1, 'gamma': 1}",0.5253164556962026,0.5253164556962026,0.5222929936305732,0.5222929936305732,0.5222929936305732,0.5235069885641678,0.001482121429166998,3,0.5230524642289348,0.5230524642289348,0.5238095238095238,0.5238095238095238,0.5238095238095238,0.5235066999772882,0.00037088193546571063
12,0.6536594867706299,0.04474355270168326,0.15129704475402833,0.005534342168359239,1,0.001,"{'C': 1, 'gamma': 0.001}",0.5126582278481012,0.5189873417721519,0.5159235668789809,0.535031847133758,0.5414012738853503,0.5247776365946633,0.01131207561726864,2,1.0,1.0,1.0,1.0,1.0,1.0,0.0
13,0.6541594982147216,0.012750536397801611,0.15079779624938966,0.0019335711216923294,1,0.01,"{'C': 1, 'gamma': 0.01}",0.5253164556962026,0.5253164556962026,0.5222929936305732,0.5222929936305732,0.5222929936305732,0.5235069885641678,0.001482121429166998,3,1.0,1.0,1.0,1.0,1.0,1.0,0.0
14,0.6822774410247803,0.01967312202246305,0.16007356643676757,0.005444187209517865,1,0.1,"{'C': 1, 'gamma': 0.1}",0.5253164556962026,0.5253164556962026,0.5222929936305732,0.5222929936305732,0.5222929936305732,0.5235069885641678,0.001482121429166998,3,1.0,1.0,1.0,1.0,1.0,1.0,0.0
15,0.6509688377380372,0.016704644574207856,0.1505971908569336,0.003337649279475681,1,1,"{'C': 1, 'gamma': 1}",0.5253164556962026,0.5253164556962026,0.5222929936305732,0.5222929936305732,0.5222929936305732,0.5235069885641678,0.001482121429166998,3,1.0,1.0,1.0,1.0,1.0,1.0,0.0
16,0.6370967864990235,0.01577438487766182,0.15698041915893554,0.011572640697496216,10,0.001,"{'C': 10, 'gamma': 0.001}",0.5316455696202531,0.5126582278481012,0.5222929936305732,0.535031847133758,0.535031847133758,0.5273189326556544,0.008699636169293094,1,1.0,1.0,1.0,1.0,1.0,1.0,0.0
17,0.6656202793121337,0.03162453642983243,0.15737876892089844,0.007339999731215275,10,0.01,"{'C': 10, 'gamma': 0.01}",0.5253164556962026,0.5253164556962026,0.5222929936305732,0.5222929936305732,0.5222929936305732,0.5235069885641678,0.001482121429166998,3,1.0,1.0,1.0,1.0,1.0,1.0,0.0
18,0.6524555683135986,0.0365921757936525,0.15398759841918946,0.010064679733702295,10,0.1,"{'C': 10, 'gamma': 0.1}",0.5253164556962026,0.5253164556962026,0.5222929936305732,0.5222929936305732,0.5222929936305732,0.5235069885641678,0.001482121429166998,3,1.0,1.0,1.0,1.0,1.0,1.0,0.0
19,0.5776556968688965,0.0633674043239744,0.1198796272277832,0.02905219842075877,10,1,"{'C': 10, 'gamma': 1}",0.5253164556962026,0.5253164556962026,0.5222929936305732,0.5222929936305732,0.5222929936305732,0.5235069885641678,0.001482121429166998,3,1.0,1.0,1.0,1.0,1.0,1.0,0.0
