,mean_fit_time,std_fit_time,mean_score_time,std_score_time,param_n_estimators,params,split0_test_score,split1_test_score,split2_test_score,split3_test_score,split4_test_score,mean_test_score,std_test_score,rank_test_score,split0_train_score,split1_train_score,split2_train_score,split3_train_score,split4_train_score,mean_train_score,std_train_score
0,2.3731574535369875,0.028637283368333332,0.08865828514099121,0.006596800154498537,200,{'n_estimators': 200},0.6455696202531646,0.6645569620253164,0.7197452229299363,0.6560509554140127,0.6560509554140127,0.6683608640406608,0.02635103655746724,4,1.0,1.0,1.0,1.0,1.0,1.0,0.0
1,4.780968809127808,0.06594210126787808,0.16678075790405272,0.014501102742192996,400,{'n_estimators': 400},0.6329113924050633,0.6772151898734177,0.7006369426751592,0.6496815286624203,0.643312101910828,0.6607369758576874,0.024748776407385452,9,1.0,1.0,1.0,1.0,1.0,1.0,0.0
2,7.172773218154907,0.061535122946459554,0.24407463073730468,0.015028032176970376,600,{'n_estimators': 600},0.6518987341772152,0.6582278481012658,0.7197452229299363,0.6496815286624203,0.6751592356687898,0.6709021601016518,0.02596377068876363,3,1.0,1.0,1.0,1.0,1.0,1.0,0.0
3,9.532358503341674,0.15403032734940802,0.3150157451629639,0.004596372240253854,800,{'n_estimators': 800},0.6455696202531646,0.6708860759493671,0.7133757961783439,0.6687898089171974,0.6751592356687898,0.6747141041931385,0.02187913196615173,1,1.0,1.0,1.0,1.0,1.0,1.0,0.0
4,11.761399030685425,0.17151785492567267,0.390885591506958,0.021199191769041347,1000,{'n_estimators': 1000},0.6582278481012658,0.6582278481012658,0.7197452229299363,0.6560509554140127,0.6496815286624203,0.6683608640406608,0.025841675164541944,4,1.0,1.0,1.0,1.0,1.0,1.0,0.0
5,14.05718674659729,0.18863620861585823,0.4628304004669189,0.0049035633256518975,1200,{'n_estimators': 1200},0.6518987341772152,0.6645569620253164,0.7070063694267515,0.6560509554140127,0.6560509554140127,0.6670902160101652,0.020349270745192445,6,1.0,1.0,1.0,1.0,1.0,1.0,0.0
6,16.355856275558473,0.15429331613966615,0.5412483215332031,0.012585937500890855,1400,{'n_estimators': 1400},0.6582278481012658,0.6582278481012658,0.7197452229299363,0.6305732484076433,0.6560509554140127,0.6645489199491741,0.02947049571732234,8,1.0,1.0,1.0,1.0,1.0,1.0,0.0
7,18.550195169448852,0.1504877541756478,0.5930601596832276,0.02321693379153523,1600,{'n_estimators': 1600},0.6455696202531646,0.6645569620253164,0.7070063694267515,0.643312101910828,0.6751592356687898,0.6670902160101652,0.023192667240354525,6,1.0,1.0,1.0,1.0,1.0,1.0,0.0
8,19.52116174697876,0.793016579907906,0.5384835243225098,0.0383344562390818,1800,{'n_estimators': 1800},0.6582278481012658,0.6518987341772152,0.7070063694267515,0.6624203821656051,0.6815286624203821,0.6721728081321474,0.020001396121921852,2,1.0,1.0,1.0,1.0,1.0,1.0,0.0
