,mean_fit_time,std_fit_time,mean_score_time,std_score_time,param_n_neighbors,params,split0_test_score,split1_test_score,split2_test_score,split3_test_score,split4_test_score,mean_test_score,std_test_score,rank_test_score,split0_train_score,split1_train_score,split2_train_score,split3_train_score,split4_train_score,mean_train_score,std_train_score
0,0.06137151718139648,0.0033143056648819724,0.29400086402893066,0.012665775354299809,1,{'n_neighbors': 1},0.5379746835443038,0.5253164556962026,0.535031847133758,0.5732484076433121,0.5732484076433121,0.5489199491740788,0.020261455444323236,3,1.0,1.0,1.0,1.0,1.0,1.0,0.0
1,0.0628471851348877,0.005109719863000755,0.3353440284729004,0.018637814030579805,2,{'n_neighbors': 2},0.4810126582278481,0.4936708860759494,0.5987261146496815,0.5796178343949044,0.5222929936305732,0.5349428208386277,0.046557021246083644,10,0.7551669316375199,0.753577106518283,0.7333333333333333,0.7412698412698413,0.753968253968254,0.7474630933454464,0.008683937879884467
2,0.06524362564086914,0.006355631822529059,0.3306866645812988,0.027433160409741246,3,{'n_neighbors': 3},0.5,0.5063291139240507,0.6050955414012739,0.6114649681528662,0.554140127388535,0.5552731893265566,0.04711296323437656,1,0.7615262321144675,0.7774244833068362,0.7634920634920634,0.7587301587301587,0.7555555555555555,0.7633456986398163,0.007530386400949841
3,0.06925845146179199,0.009351904185663541,0.33232789039611815,0.016219632922691726,4,{'n_neighbors': 4},0.5063291139240507,0.5253164556962026,0.5923566878980892,0.5732484076433121,0.5222929936305732,0.5438373570520966,0.032956022804008736,4,0.7106518282988871,0.7201907790143084,0.6873015873015873,0.692063492063492,0.7126984126984127,0.7045812198753376,0.012662374610848808
4,0.06047701835632324,0.0016791153123638365,0.3197039604187012,0.013866185612403775,5,{'n_neighbors': 5},0.5379746835443038,0.47468354430379744,0.5732484076433121,0.5859872611464968,0.5477707006369427,0.5438373570520966,0.03869192289042096,4,0.7138314785373608,0.7042925278219396,0.6873015873015873,0.6936507936507936,0.6793650793650794,0.6956882933353523,0.012199537513817808
5,0.06567525863647461,0.010278866114535325,0.3176394462585449,0.017871439243161882,6,{'n_neighbors': 6},0.5253164556962026,0.5443037974683544,0.5414012738853503,0.5477707006369427,0.5286624203821656,0.5374841168996188,0.008874415582965018,8,0.6868044515103339,0.6804451510333863,0.6777777777777778,0.6761904761904762,0.6507936507936508,0.674402301461125,0.01234738152291306
6,0.06764259338378906,0.007505295343214951,0.35631160736083983,0.036863768270925606,7,{'n_neighbors': 7},0.5,0.5316455696202531,0.5477707006369427,0.5859872611464968,0.5414012738853503,0.5412960609911055,0.02771066763701872,7,0.6550079491255962,0.6534181240063593,0.6492063492063492,0.6603174603174603,0.626984126984127,0.6489868019279783,0.011562357494638293
7,0.07282166481018067,0.00992383127155631,0.3140768051147461,0.017794211121778928,8,{'n_neighbors': 8},0.5316455696202531,0.5443037974683544,0.5477707006369427,0.5796178343949044,0.5095541401273885,0.542566709021601,0.022830352549526447,6,0.6645468998410174,0.6597774244833068,0.6428571428571429,0.6412698412698413,0.6476190476190476,0.6512140712140712,0.009303176810150086
8,0.06411933898925781,0.005610760324913134,0.33783788681030275,0.02312934075117348,9,{'n_neighbors': 9},0.5253164556962026,0.5443037974683544,0.5159235668789809,0.5987261146496815,0.5031847133757962,0.5374841168996188,0.03338708725350455,8,0.6327503974562798,0.6454689984101749,0.626984126984127,0.6507936507936508,0.6190476190476191,0.6350089585383702,0.011686165510450233
9,0.06113910675048828,0.005919745621257855,0.32590718269348146,0.01899153443493571,10,{'n_neighbors': 10},0.5316455696202531,0.5506329113924051,0.5477707006369427,0.6114649681528662,0.5095541401273885,0.5501905972045743,0.03389217818971841,2,0.6422893481717011,0.6470588235294118,0.6412698412698413,0.6412698412698413,0.6333333333333333,0.6410442375148258,0.004411017634955242
