,negative,positive,micro avg,macro avg,weighted avg
f1-score,0.640625,0.6592592592592593,0.6501901140684411,0.6499421296296297,0.6504026721588511
precision,0.6259541984732825,0.6742424242424242,0.6501901140684411,0.6500983113578533,0.6512917465954937
recall,0.6559999999999999,0.644927536231884,0.6501901140684411,0.650463768115942,0.6501901140684411
support,125.0,138.0,263.0,263.0,263.0
f1-score,0.6374501992031872,0.6690909090909091,0.6539923954372624,0.6532705541470482,0.6540525488781135
precision,0.6349206349206349,0.6715328467153284,0.6539923954372624,0.6532267408179817,0.6541316053680407
recall,0.64,0.6666666666666666,0.6539923954372624,0.6533333333333333,0.6539923954372624
support,125.0,138.0,263.0,263.0,263.0
f1-score,0.6816479400749064,0.6718146718146718,0.6768060836501901,0.6767313059447889,0.6764882784022358
precision,0.6408450704225352,0.71900826446281,0.6768060836501901,0.6799266674426726,0.6818584574094475
recall,0.728,0.6304347826086957,0.6768060836501901,0.6792173913043478,0.6768060836501901
support,125.0,138.0,263.0,263.0,263.0
f1-score,0.6209677419354838,0.6618705035971223,0.6425855513307985,0.6414191227663031,0.6424300275221991
precision,0.6260162601626016,0.6571428571428571,0.6425855513307985,0.6415795586527293,0.6423488471712528
recall,0.616,0.6666666666666666,0.6425855513307985,0.6413333333333333,0.6425855513307985
support,125.0,138.0,263.0,263.0,263.0
f1-score,0.6196078431372549,0.6420664206642067,0.6311787072243346,0.6308371319007309,0.631392191801587
precision,0.6076923076923076,0.6541353383458647,0.6311787072243346,0.6309138230190862,0.6320616545751626
recall,0.632,0.6304347826086957,0.6311787072243346,0.6312173913043478,0.6311787072243346
support,125.0,138.0,263.0,263.0,263.0
