,negative,positive,micro avg,macro avg,weighted avg
f1-score,0.6693548387096774,0.7050359712230215,0.6882129277566539,0.6871954049663495,0.6880772580512801
precision,0.6747967479674797,0.7,0.6882129277566539,0.6873983739837398,0.68802126804538
recall,0.664,0.7101449275362319,0.6882129277566539,0.6870724637681159,0.6882129277566539
support,125.0,138.0,263.0,263.0,263.0
f1-score,0.6015037593984962,0.5923076923076923,0.596958174904943,0.5969057258530943,0.5966784466284166
precision,0.5673758865248227,0.6311475409836066,0.596958174904943,0.5992617137542147,0.6008378192826637
recall,0.64,0.5579710144927537,0.596958174904943,0.5989855072463768,0.596958174904943
support,125.0,138.0,263.0,263.0,263.0
f1-score,0.6461538461538461,0.6541353383458646,0.6501901140684411,0.6501445922498553,0.6503418534637265
precision,0.6222222222222222,0.6796875,0.6501901140684411,0.6509548611111111,0.6523751056189269
recall,0.672,0.6304347826086957,0.6501901140684411,0.6512173913043479,0.6501901140684411
support,125.0,138.0,263.0,263.0,263.0
f1-score,0.5891472868217055,0.6044776119402986,0.596958174904943,0.5968124493810021,0.5971913357432487
precision,0.5714285714285714,0.6230769230769231,0.596958174904943,0.5972527472527472,0.5985292274265659
recall,0.608,0.5869565217391305,0.596958174904943,0.5974782608695652,0.596958174904943
support,125.0,138.0,263.0,263.0,263.0
f1-score,0.6396761133603239,0.6810035842293907,0.6615969581749049,0.6603398487948573,0.661361250166146
precision,0.6475409836065574,0.6737588652482269,0.6615969581749049,0.6606499244273922,0.6612978948862167
recall,0.632,0.6884057971014492,0.6615969581749049,0.6602028985507247,0.6615969581749049
support,125.0,138.0,263.0,263.0,263.0
