,0,1,2,3,4,5,6,7,8,9,10,11,12,13,14,15,16,17,18,19,20,21,22,23,24,25,26,27,28,29,micro avg,macro avg,weighted avg
f1-score,0.6666666666666666,0.7499999999999999,0.6666666666666666,0.6153846153846153,0.7058823529411764,0.7142857142857143,0.9333333333333333,0.761904761904762,0.5,0.8,0.923076923076923,0.8571428571428571,0.5714285714285715,0.7999999999999999,0.8888888888888888,0.5,0.8571428571428571,0.5,0.7142857142857143,0.8,1.0,0.6666666666666665,0.625,0.5454545454545455,0.8421052631578948,0.75,0.6666666666666666,0.625,0.8181818181818182,0.7142857142857143,0.7160493827160493,0.7259816865854016,0.7112284168413053
precision,0.6666666666666666,0.6,0.7142857142857143,0.6666666666666666,0.5454545454545454,0.5555555555555556,0.875,1.0,0.75,0.6666666666666666,1.0,0.75,0.4,0.75,0.8888888888888888,0.42857142857142855,0.8571428571428571,0.5,0.8333333333333334,0.6666666666666666,1.0,0.8571428571428571,0.625,0.6666666666666666,1.0,0.8571428571428571,0.5,0.8333333333333334,0.75,0.625,0.7160493827160493,0.7276394901394901,0.7580610633079768
recall,0.6666666666666666,1.0,0.625,0.5714285714285714,1.0,1.0,1.0,0.6153846153846154,0.375,1.0,0.8571428571428571,1.0,1.0,0.8571428571428571,0.8888888888888888,0.6,0.8571428571428571,0.5,0.625,1.0,1.0,0.5454545454545454,0.625,0.46153846153846156,0.7272727272727273,0.6666666666666666,1.0,0.5,0.9,0.8333333333333334,0.7160493827160493,0.7766021016021015,0.7160493827160493
support,6.0,6.0,8.0,7.0,6.0,5.0,7.0,13.0,16.0,4.0,7.0,6.0,4.0,7.0,9.0,5.0,7.0,8.0,8.0,6.0,5.0,11.0,8.0,13.0,11.0,9.0,5.0,20.0,10.0,6.0,243.0,243.0,243.0
