,acerolas,apples,apricots,avocados,bananas,blackberries,blueberries,cantaloupes,cherries,coconuts,figs,grapefruits,grapes,guava,kiwifruit,lemons,limes,mangos,olives,oranges,passionfruit,peaches,pears,pineapples,plums,pomegranates,raspberries,strawberries,tomatoes,watermelons,micro avg,macro avg,weighted avg
f1-score,0.0,0.08695652173913042,0.13333333333333333,0.5,0.4545454545454545,0.6,0.823529411764706,0.35294117647058826,0.22222222222222224,0.5,0.16666666666666666,0.0,0.5555555555555556,0.2,0.30769230769230765,0.4615384615384615,0.42857142857142855,0.13333333333333333,0.0,0.2352941176470588,0.0,0.15384615384615385,0.13333333333333333,0.4444444444444444,0.4,0.16666666666666666,0.3636363636363636,0.3809523809523809,0.64,0.26666666666666666,0.3292181069958848,0.3037242000208753,0.32207280768235585
precision,0.0,0.07692307692307693,0.125,0.4,0.4545454545454545,0.5454545454545454,0.7777777777777778,0.3333333333333333,0.2,0.4,0.16666666666666666,0.0,0.625,0.16666666666666666,0.5,0.5,0.42857142857142855,0.14285714285714285,0.0,0.25,0.0,0.16666666666666666,0.14285714285714285,0.4444444444444444,0.42857142857142855,0.2,0.3333333333333333,0.4444444444444444,0.6153846153846154,0.2857142857142857,0.3292181069958848,0.3051404151404151,0.32631066921190377
recall,0.0,0.1,0.14285714285714285,0.6666666666666666,0.4545454545454545,0.6666666666666666,0.875,0.375,0.25,0.6666666666666666,0.16666666666666666,0.0,0.5,0.25,0.2222222222222222,0.42857142857142855,0.42857142857142855,0.125,0.0,0.2222222222222222,0.0,0.14285714285714285,0.125,0.4444444444444444,0.375,0.14285714285714285,0.4,0.3333333333333333,0.6666666666666666,0.25,0.3292181069958848,0.3140271765271765,0.3292181069958848
support,6.0,10.0,7.0,6.0,11.0,9.0,8.0,8.0,8.0,6.0,6.0,8.0,10.0,8.0,9.0,7.0,7.0,8.0,6.0,9.0,5.0,7.0,8.0,9.0,8.0,7.0,10.0,12.0,12.0,8.0,243.0,243.0,243.0
f1-score,0.25,0.08333333333333333,0.15384615384615385,0.15384615384615385,0.6086956521739131,0.3,0.3333333333333333,0.0,0.25,0.8333333333333334,0.3529411764705882,0.26666666666666666,0.0,0.5263157894736842,0.25,0.4444444444444445,0.3333333333333333,0.0,0.0,0.5217391304347826,0.1818181818181818,0.4705882352941176,0.3,0.375,0.125,0.16666666666666666,0.2727272727272727,0.35294117647058826,0.48,0.26666666666666666,0.2962962962962963,0.28844122334444044,0.2916585633797794
precision,0.5,0.07142857142857142,0.16666666666666666,0.14285714285714285,0.5833333333333334,0.2727272727272727,0.5,0.0,0.25,0.8333333333333334,0.2727272727272727,0.2857142857142857,0.0,0.4545454545454545,0.2857142857142857,1.0,0.4,0.0,0.0,0.42857142857142855,0.16666666666666666,0.4,0.25,0.375,0.125,0.2,0.25,0.6,0.4615384615384616,0.2857142857142857,0.2962962962962963,0.3187179487179488,0.3207976522791337
recall,0.16666666666666666,0.1,0.14285714285714285,0.16666666666666666,0.6363636363636364,0.3333333333333333,0.25,0.0,0.25,0.8333333333333334,0.5,0.25,0.0,0.625,0.2222222222222222,0.2857142857142857,0.2857142857142857,0.0,0.0,0.6666666666666666,0.2,0.5714285714285714,0.375,0.375,0.125,0.14285714285714285,0.3,0.25,0.5,0.25,0.2962962962962963,0.2934607984607985,0.2962962962962963
support,6.0,10.0,7.0,6.0,11.0,9.0,8.0,8.0,8.0,6.0,6.0,8.0,10.0,8.0,9.0,7.0,7.0,9.0,6.0,9.0,5.0,7.0,8.0,8.0,8.0,7.0,10.0,12.0,12.0,8.0,243.0,243.0,243.0
f1-score,0.2222222222222222,0.0,0.4,0.4,0.6666666666666666,0.0,0.7142857142857143,0.3,0.0,0.6666666666666666,0.0,0.35294117647058826,0.08,0.25,0.5882352941176471,0.5,0.2857142857142857,0.30769230769230765,0.13333333333333333,0.25,0.25,0.0,0.4,0.75,0.2352941176470588,0.2857142857142857,0.3157894736842105,0.5,0.2222222222222222,0.13333333333333333,0.32510288065843623,0.3070037033256847,0.3104584823883069
precision,0.3333333333333333,0.0,0.375,0.5,0.7,0.0,0.8333333333333334,0.25,0.0,0.5,0.0,0.3333333333333333,0.06666666666666668,0.25,0.625,0.4444444444444444,0.2857142857142857,0.5,0.1111111111111111,0.2857142857142857,0.3333333333333333,0.0,0.3333333333333333,0.75,0.2222222222222222,0.2857142857142857,0.3333333333333333,0.375,0.3333333333333333,0.14285714285714285,0.32510288065843623,0.3167592592592593,0.3205206087922137
recall,0.16666666666666666,0.0,0.42857142857142855,0.3333333333333333,0.6363636363636364,0.0,0.625,0.375,0.0,1.0,0.0,0.375,0.1,0.25,0.5555555555555556,0.5714285714285714,0.2857142857142857,0.2222222222222222,0.16666666666666666,0.2222222222222222,0.2,0.0,0.5,0.75,0.25,0.2857142857142857,0.3,0.75,0.16666666666666666,0.125,0.32510288065843623,0.32137085137085136,0.32510288065843623
support,6.0,10.0,7.0,6.0,11.0,9.0,8.0,8.0,8.0,6.0,6.0,8.0,10.0,8.0,9.0,7.0,7.0,9.0,6.0,9.0,5.0,7.0,8.0,8.0,8.0,7.0,10.0,12.0,12.0,8.0,243.0,243.0,243.0
f1-score,0.1818181818181818,0.0,0.13333333333333333,0.2222222222222222,0.4375,0.35294117647058826,0.7777777777777777,0.35294117647058826,0.3157894736842105,0.4615384615384615,0.3333333333333333,0.5,0.24,0.26666666666666666,0.3157894736842105,0.15384615384615385,0.5714285714285714,0.0,0.2,0.4705882352941176,0.13333333333333333,0.3636363636363637,0.10526315789473684,0.3333333333333333,0.16666666666666666,0.3529411764705882,0.3333333333333333,0.4166666666666667,0.35294117647058826,0.10526315789473684,0.3045267489711934,0.29836308677562545,0.3038863419243154
precision,0.2,0.0,0.125,0.3333333333333333,0.3333333333333333,0.375,0.7,0.3333333333333333,0.2727272727272727,0.42857142857142855,0.3333333333333333,0.75,0.2,0.2857142857142857,0.3,0.16666666666666666,0.5714285714285714,0.0,0.25,0.5,0.1,0.5,0.09090909090909093,0.6666666666666666,0.25,0.3,0.375,0.4166666666666667,0.6,0.09090909090909093,0.3045267489711934,0.3282864357864358,0.3365987921543477
recall,0.16666666666666666,0.0,0.14285714285714285,0.16666666666666666,0.6363636363636364,0.3333333333333333,0.875,0.375,0.375,0.5,0.3333333333333333,0.375,0.3,0.25,0.3333333333333333,0.14285714285714285,0.5714285714285714,0.0,0.16666666666666666,0.4444444444444444,0.2,0.2857142857142857,0.125,0.2222222222222222,0.125,0.42857142857142855,0.3,0.4166666666666667,0.25,0.125,0.3045267489711934,0.2988708513708513,0.3045267489711934
support,6.0,10.0,7.0,6.0,11.0,9.0,8.0,8.0,8.0,6.0,6.0,8.0,10.0,8.0,9.0,7.0,7.0,8.0,6.0,9.0,5.0,7.0,8.0,9.0,8.0,7.0,10.0,12.0,12.0,8.0,243.0,243.0,243.0
f1-score,0.1818181818181818,0.08333333333333333,0.2857142857142857,0.2,0.3,0.19999999999999998,0.6153846153846154,0.25,0.33333333333333326,0.5,0.2,0.3076923076923077,0.0,0.15384615384615385,0.380952380952381,0.42857142857142855,0.588235294117647,0.09999999999999999,0.3636363636363636,0.13333333333333333,0.0,0.4,0.35294117647058826,0.3157894736842105,0.2857142857142857,0.2222222222222222,0.33333333333333326,0.4166666666666667,0.4761904761904762,0.18181818181818182,0.2880658436213992,0.28635089426111093,0.288179464692097
precision,0.2,0.07142857142857142,0.2857142857142857,0.25,0.3333333333333333,0.18181818181818182,0.8,0.25,0.3,0.5,0.25,0.4,0.0,0.2,0.3333333333333333,0.42857142857142855,0.5,0.09090909090909091,0.4,0.16666666666666666,0.0,0.6666666666666666,0.3333333333333333,0.2727272727272727,0.23076923076923078,0.18181818181818182,0.375,0.4166666666666667,0.5555555555555556,0.14285714285714285,0.2880658436213992,0.30390563140563137,0.3054693591730629
recall,0.16666666666666666,0.1,0.2857142857142857,0.16666666666666666,0.2727272727272727,0.2222222222222222,0.5,0.25,0.375,0.5,0.16666666666666666,0.25,0.0,0.125,0.4444444444444444,0.42857142857142855,0.7142857142857143,0.1111111111111111,0.3333333333333333,0.1111111111111111,0.0,0.2857142857142857,0.375,0.375,0.375,0.2857142857142857,0.3,0.4166666666666667,0.4166666666666667,0.25,0.2880658436213992,0.28677609427609424,0.2880658436213992
support,6.0,10.0,7.0,6.0,11.0,9.0,8.0,8.0,8.0,6.0,6.0,8.0,10.0,8.0,9.0,7.0,7.0,9.0,6.0,9.0,5.0,7.0,8.0,8.0,8.0,7.0,10.0,12.0,12.0,8.0,243.0,243.0,243.0
