,acerolas,apples,apricots,avocados,bananas,blackberries,blueberries,cantaloupes,cherries,coconuts,figs,grapefruits,grapes,guava,kiwifruit,lemons,limes,mangos,olives,oranges,passionfruit,peaches,pears,pineapples,plums,pomegranates,raspberries,strawberries,tomatoes,watermelons,micro avg,macro avg,weighted avg
f1-score,0.1875,0.06896551724137931,0.0,0.4444444444444444,0.631578947368421,0.25,0.7142857142857143,0.26666666666666666,0.14285714285714288,0.3333333333333333,0.25,0.18181818181818185,0.0,0.0,0.0,0.0,0.16666666666666666,0.18181818181818185,0.0,0.5263157894736842,0.0,0.0,0.1176470588235294,0.125,0.0,0.15384615384615385,0.16666666666666669,0.16666666666666666,0.0,0.2857142857142857,0.19753086419753085,0.17872638058970394,0.18138784622025628
precision,0.1153846153846154,0.05263157894736842,0.0,0.3333333333333333,0.75,0.2857142857142857,0.8333333333333334,0.18181818181818185,0.16666666666666666,0.3333333333333333,0.5,0.3333333333333333,0.0,0.0,0.0,0.0,0.2,0.3333333333333333,0.0,0.5,0.0,0.0,0.1111111111111111,0.08695652173913042,0.0,0.09375,0.5,0.16666666666666666,0.0,0.3333333333333333,0.19753086419753085,0.2070233209349342,0.21284915675842164
recall,0.5,0.1,0.0,0.6666666666666666,0.5454545454545454,0.2222222222222222,0.625,0.5,0.125,0.3333333333333333,0.16666666666666666,0.125,0.0,0.0,0.0,0.0,0.14285714285714285,0.125,0.0,0.5555555555555556,0.0,0.0,0.125,0.2222222222222222,0.0,0.42857142857142855,0.1,0.16666666666666666,0.0,0.25,0.19753086419753085,0.20084054834054835,0.19753086419753085
support,6.0,10.0,7.0,6.0,11.0,9.0,8.0,8.0,8.0,6.0,6.0,8.0,10.0,8.0,9.0,7.0,7.0,8.0,6.0,9.0,5.0,7.0,8.0,9.0,8.0,7.0,10.0,12.0,12.0,8.0,243.0,243.0,243.0
f1-score,0.13793103448275862,0.3333333333333333,0.0,0.0,0.2857142857142857,0.0,0.6153846153846154,0.22222222222222224,0.0,0.3333333333333333,0.0,0.2105263157894737,0.0,0.0,0.0,0.0,0.0,0.0,0.0,0.375,0.0,0.0,0.2727272727272727,0.2307692307692308,0.0,0.4444444444444444,0.0,0.2222222222222222,0.2962962962962963,0.5454545454545454,0.18106995884773666,0.1508453050724678,0.1596246240131656
precision,0.08695652173913042,0.375,0.0,0.0,0.6666666666666666,0.0,0.8,0.14285714285714285,0.0,0.25,0.0,0.13333333333333333,0.0,0.0,0.0,0.0,0.0,0.0,0.0,0.42857142857142855,0.0,0.0,0.21428571428571427,0.16666666666666666,0.0,0.3636363636363637,0.0,0.3333333333333333,0.26666666666666666,1.0,0.18106995884773666,0.17426579459188155,0.19080169845065176
recall,0.3333333333333333,0.3,0.0,0.0,0.18181818181818185,0.0,0.5,0.5,0.0,0.5,0.0,0.5,0.0,0.0,0.0,0.0,0.0,0.0,0.0,0.3333333333333333,0.0,0.0,0.375,0.375,0.0,0.5714285714285714,0.0,0.16666666666666666,0.3333333333333333,0.375,0.18106995884773666,0.17816378066378066,0.18106995884773666
support,6.0,10.0,7.0,6.0,11.0,9.0,8.0,8.0,8.0,6.0,6.0,8.0,10.0,8.0,9.0,7.0,7.0,9.0,6.0,9.0,5.0,7.0,8.0,8.0,8.0,7.0,10.0,12.0,12.0,8.0,243.0,243.0,243.0
f1-score,0.16666666666666666,0.11111111111111112,0.09090909090909093,0.4,0.4,0.4,0.6666666666666666,0.3333333333333333,0.08333333333333333,0.2222222222222222,0.25,0.0,0.0,0.0,0.14285714285714285,0.0,0.4444444444444445,0.0,0.1818181818181818,0.3333333333333333,0.0,0.0,0.13333333333333333,0.11111111111111112,0.0,0.16,0.0,0.0909090909090909,0.08695652173913042,0.18181818181818185,0.16049382716049382,0.16636079218687916,0.1637847637740284
precision,0.16666666666666666,0.125,0.05084745762711865,0.5,0.75,0.5,0.7142857142857143,0.3,0.0625,0.16666666666666666,0.5,0.0,0.0,0.0,0.2,0.0,1.0,0.0,0.2,0.3333333333333333,0.0,0.0,0.14285714285714285,0.1,0.0,0.1111111111111111,0.0,0.1,0.09090909090909093,0.3333333333333333,0.16049382716049382,0.21491701722633924,0.2125449736456224
recall,0.16666666666666666,0.1,0.42857142857142855,0.3333333333333333,0.2727272727272727,0.3333333333333333,0.625,0.375,0.125,0.3333333333333333,0.16666666666666666,0.0,0.0,0.0,0.1111111111111111,0.0,0.2857142857142857,0.0,0.16666666666666666,0.3333333333333333,0.0,0.0,0.125,0.125,0.0,0.2857142857142857,0.0,0.08333333333333333,0.08333333333333333,0.125,0.16049382716049382,0.1661279461279461,0.16049382716049382
support,6.0,10.0,7.0,6.0,11.0,9.0,8.0,8.0,8.0,6.0,6.0,8.0,10.0,8.0,9.0,7.0,7.0,9.0,6.0,9.0,5.0,7.0,8.0,8.0,8.0,7.0,10.0,12.0,12.0,8.0,243.0,243.0,243.0
f1-score,0.0,0.2352941176470588,0.0,0.2857142857142857,0.15384615384615385,0.0,0.4615384615384615,0.4137931034482759,0.12121212121212123,0.6153846153846153,0.0,0.0,0.0,0.0,0.25,0.15384615384615385,0.6666666666666666,0.16666666666666666,0.0,0.375,0.0,0.4,0.2,0.1176470588235294,0.0,0.4166666666666667,0.0,0.1,0.08333333333333333,0.4615384615384615,0.20164609053497945,0.189271595544415,0.18269099889000726
precision,0.0,0.2857142857142857,0.0,0.25,0.5,0.0,0.6,0.2857142857142857,0.08,0.5714285714285714,0.0,0.0,0.0,0.0,0.2857142857142857,0.16666666666666666,0.8,0.25,0.0,0.42857142857142855,0.0,0.375,0.16666666666666666,0.07142857142857142,0.0,0.29411764705882354,0.0,0.125,0.08333333333333333,0.6,0.20164609053497945,0.2073118580765639,0.2064472455648926
recall,0.0,0.2,0.0,0.3333333333333333,0.09090909090909093,0.0,0.375,0.75,0.25,0.6666666666666666,0.0,0.0,0.0,0.0,0.2222222222222222,0.14285714285714285,0.5714285714285714,0.125,0.0,0.3333333333333333,0.0,0.42857142857142855,0.25,0.3333333333333333,0.0,0.7142857142857143,0.0,0.08333333333333333,0.08333333333333333,0.375,0.20164609053497945,0.21095358345358345,0.20164609053497945
support,6.0,10.0,7.0,6.0,11.0,9.0,8.0,8.0,8.0,6.0,6.0,8.0,10.0,8.0,9.0,7.0,7.0,8.0,6.0,9.0,5.0,7.0,8.0,9.0,8.0,7.0,10.0,12.0,12.0,8.0,243.0,243.0,243.0
f1-score,0.25,0.33333333333333326,0.0,0.4,0.3157894736842105,0.0,0.6666666666666666,0.39999999999999997,0.0,0.3333333333333333,0.2857142857142857,0.0,0.0,0.0,0.375,0.0,0.25,0.16666666666666666,0.14285714285714288,0.5217391304347826,0.0,0.3333333333333333,0.11111111111111112,0.12903225806451613,0.0,0.23809523809523808,0.11111111111111112,0.14285714285714288,0.09523809523809525,0.5,0.21810699588477367,0.20339594408336564,0.20173593639585838
precision,0.2,0.375,0.0,0.5,0.2222222222222222,0.0,1.0,0.42857142857142855,0.0,0.25,1.0,0.0,0.0,0.0,0.42857142857142855,0.0,1.0,0.3333333333333333,0.125,0.42857142857142855,0.0,0.4,0.1,0.08695652173913043,0.0,0.14285714285714285,0.125,0.125,0.1111111111111111,0.75,0.21810699588477367,0.2710731538992409,0.25994356829032084
recall,0.3333333333333333,0.3,0.0,0.3333333333333333,0.5454545454545454,0.0,0.5,0.375,0.0,0.5,0.16666666666666666,0.0,0.0,0.0,0.3333333333333333,0.0,0.14285714285714285,0.1111111111111111,0.16666666666666666,0.6666666666666666,0.0,0.2857142857142857,0.125,0.25,0.0,0.7142857142857143,0.1,0.16666666666666666,0.08333333333333333,0.375,0.21810699588477367,0.21914742664742665,0.21810699588477367
support,6.0,10.0,7.0,6.0,11.0,9.0,8.0,8.0,8.0,6.0,6.0,8.0,10.0,8.0,9.0,7.0,7.0,9.0,6.0,9.0,5.0,7.0,8.0,8.0,8.0,7.0,10.0,12.0,12.0,8.0,243.0,243.0,243.0
