,acerolas,apples,apricots,avocados,bananas,blackberries,blueberries,cantaloupes,cherries,coconuts,figs,grapefruits,grapes,guava,kiwifruit,lemons,limes,mangos,olives,oranges,passionfruit,peaches,pears,pineapples,plums,pomegranates,raspberries,strawberries,tomatoes,watermelons,micro avg,macro avg,weighted avg
f1-score,0.0,0.08333333333333333,0.3529411764705882,0.2,0.4516129032258064,0.6666666666666666,0.8888888888888891,0.5333333333333333,0.5,0.42857142857142855,0.3529411764705882,0.4615384615384615,0.2105263157894737,0.2105263157894737,0.30769230769230765,0.2,0.5263157894736842,0.0,0.25,0.6666666666666667,0.2857142857142857,0.16666666666666666,0.0,0.35294117647058826,0.3076923076923077,0.75,0.3333333333333333,0.48,0.43478260869565216,0.4444444444444445,0.382716049382716,0.3615709862309327,0.36923155112121214
precision,0.0,0.07142857142857142,0.3,0.25,0.35,0.6666666666666666,0.8,0.5714285714285714,0.4166666666666667,0.375,0.2727272727272727,0.6,0.2222222222222222,0.18181818181818185,0.5,0.3333333333333333,0.4166666666666667,0.0,0.5,0.8333333333333334,0.5,0.2,0.0,0.375,0.4,0.6666666666666666,0.375,0.4615384615384616,0.4545454545454545,0.4,0.382716049382716,0.3831347356347357,0.387517911900628
recall,0.0,0.1,0.42857142857142855,0.16666666666666666,0.6363636363636364,0.6666666666666666,1.0,0.5,0.625,0.5,0.5,0.375,0.2,0.25,0.2222222222222222,0.14285714285714285,0.7142857142857143,0.0,0.16666666666666666,0.5555555555555556,0.2,0.14285714285714285,0.0,0.3333333333333333,0.25,0.8571428571428571,0.3,0.5,0.4166666666666667,0.5,0.382716049382716,0.3749951899951901,0.382716049382716
support,6.0,10.0,7.0,6.0,11.0,9.0,8.0,8.0,8.0,6.0,6.0,8.0,10.0,8.0,9.0,7.0,7.0,8.0,6.0,9.0,5.0,7.0,8.0,9.0,8.0,7.0,10.0,12.0,12.0,8.0,243.0,243.0,243.0
f1-score,0.2222222222222222,0.0,0.3333333333333333,0.4615384615384615,0.5294117647058824,0.4,0.5,0.3076923076923077,0.3333333333333333,0.3636363636363636,0.0,0.3076923076923077,0.28571428571428564,0.4444444444444445,0.4705882352941176,0.4444444444444445,0.7142857142857143,0.35294117647058826,0.2857142857142857,0.5882352941176471,0.3333333333333333,0.1176470588235294,0.0,0.4705882352941176,0.2857142857142857,0.6250000000000001,0.4,0.4615384615384615,0.6086956521739131,0.5333333333333333,0.3909465020576132,0.3727026111616905,0.381070199538988
precision,0.3333333333333333,0.0,0.4,0.42857142857142855,0.39130434782608703,0.3125,0.5,0.4,0.3,0.4,0.0,0.4,0.2727272727272727,0.4,0.5,1.0,0.7142857142857143,0.375,0.25,0.625,0.2857142857142857,0.1,0.0,0.4444444444444444,0.3333333333333333,0.5555555555555556,0.6,0.42857142857142855,0.6363636363636364,0.5714285714285714,0.3909465020576132,0.3986044450718363,0.4041394280457619
recall,0.16666666666666666,0.0,0.2857142857142857,0.5,0.8181818181818182,0.5555555555555556,0.5,0.25,0.375,0.3333333333333333,0.0,0.25,0.3,0.5,0.4444444444444444,0.2857142857142857,0.7142857142857143,0.3333333333333333,0.3333333333333333,0.5555555555555556,0.4,0.14285714285714285,0.0,0.5,0.25,0.7142857142857143,0.3,0.5,0.5833333333333334,0.5,0.3909465020576132,0.3797198172198172,0.3909465020576132
support,6.0,10.0,7.0,6.0,11.0,9.0,8.0,8.0,8.0,6.0,6.0,8.0,10.0,8.0,9.0,7.0,7.0,9.0,6.0,9.0,5.0,7.0,8.0,8.0,8.0,7.0,10.0,12.0,12.0,8.0,243.0,243.0,243.0
f1-score,0.2222222222222222,0.09523809523809523,0.3157894736842105,0.2857142857142857,0.6086956521739131,0.2857142857142857,1.0,0.4444444444444445,0.1904761904761905,0.6153846153846153,0.15384615384615385,0.4615384615384615,0.4000000000000001,0.3333333333333333,0.6206896551724138,0.5,0.7142857142857143,0.4,0.3333333333333333,0.35294117647058826,0.4444444444444445,0.0,0.0,0.5,0.3076923076923077,0.7058823529411764,0.6,0.5833333333333334,0.5714285714285715,0.18181818181818185,0.4279835390946503,0.4076082094896759,0.4169984940974461
precision,0.3333333333333333,0.09090909090909093,0.25,0.25,0.5833333333333334,0.25,1.0,0.4,0.15384615384615385,0.5714285714285714,0.14285714285714285,0.6,0.4,0.3,0.45,0.6,0.7142857142857143,0.5,0.3333333333333333,0.375,0.5,0.0,0.0,0.75,0.4,0.6,0.6,0.5833333333333334,0.6666666666666666,0.3333333333333333,0.4279835390946502,0.4243886668886669,0.43388439406957935
recall,0.16666666666666666,0.1,0.42857142857142855,0.3333333333333333,0.6363636363636364,0.3333333333333333,1.0,0.5,0.25,0.6666666666666666,0.16666666666666666,0.375,0.4,0.375,1.0,0.42857142857142855,0.7142857142857143,0.3333333333333333,0.3333333333333333,0.3333333333333333,0.4,0.0,0.0,0.375,0.25,0.8571428571428571,0.6,0.5833333333333334,0.5,0.125,0.4279835390946502,0.4188311688311688,0.4279835390946502
support,6.0,10.0,7.0,6.0,11.0,9.0,8.0,8.0,8.0,6.0,6.0,8.0,10.0,8.0,9.0,7.0,7.0,9.0,6.0,9.0,5.0,7.0,8.0,8.0,8.0,7.0,10.0,12.0,12.0,8.0,243.0,243.0,243.0
f1-score,0.14285714285714288,0.1176470588235294,0.1111111111111111,0.3333333333333333,0.6060606060606061,0.5263157894736842,0.7777777777777777,0.4444444444444445,0.4210526315789474,0.5714285714285715,0.14285714285714288,0.5,0.14285714285714288,0.42857142857142855,0.3,0.3636363636363637,0.7777777777777778,0.2857142857142857,0.0,0.3157894736842105,0.22222222222222224,0.42857142857142855,0.15384615384615385,0.42857142857142855,0.26666666666666666,0.7058823529411764,0.25,0.4615384615384615,0.2962962962962963,0.18181818181818185,0.382716049382716,0.3568215091486505,0.3606739508585627
precision,0.125,0.14285714285714285,0.09090909090909093,0.3333333333333333,0.4545454545454545,0.5,0.7,0.4,0.3636363636363637,0.5,0.125,0.75,0.25,0.5,0.2727272727272727,0.5,0.6363636363636364,0.3333333333333333,0.0,0.3,0.25,0.42857142857142855,0.2,0.6,0.2857142857142857,0.6,0.3333333333333333,0.42857142857142855,0.26666666666666666,0.3333333333333333,0.382716049382716,0.3667965367965369,0.3708985801578394
recall,0.16666666666666666,0.1,0.14285714285714285,0.3333333333333333,0.9090909090909092,0.5555555555555556,0.875,0.5,0.5,0.6666666666666666,0.16666666666666666,0.375,0.1,0.375,0.3333333333333333,0.2857142857142857,1.0,0.25,0.0,0.3333333333333333,0.2,0.42857142857142855,0.125,0.3333333333333333,0.25,0.8571428571428571,0.2,0.5,0.3333333333333333,0.125,0.382716049382716,0.3773532948532949,0.382716049382716
support,6.0,10.0,7.0,6.0,11.0,9.0,8.0,8.0,8.0,6.0,6.0,8.0,10.0,8.0,9.0,7.0,7.0,8.0,6.0,9.0,5.0,7.0,8.0,9.0,8.0,7.0,10.0,12.0,12.0,8.0,243.0,243.0,243.0
f1-score,0.0,0.09523809523809525,0.15384615384615383,0.5,0.3703703703703703,0.5454545454545455,0.631578947368421,0.28571428571428575,0.375,0.7142857142857143,0.2,0.7999999999999999,0.0,0.28571428571428575,0.6,0.26666666666666666,0.6153846153846153,0.25,0.0,0.35294117647058826,0.7499999999999999,0.36363636363636365,0.18181818181818182,0.5555555555555556,0.5,0.4210526315789474,0.3636363636363636,0.4827586206896552,0.380952380952381,0.36363636363636365,0.3868312757201646,0.38017471060058505,0.37685132692102696
precision,0.0,0.09090909090909091,0.16666666666666666,0.5,0.3125,0.46153846153846156,0.5454545454545454,0.3333333333333333,0.375,0.625,0.25,0.8571428571428571,0.0,0.3333333333333333,0.5454545454545454,0.25,0.6666666666666666,0.2857142857142857,0.0,0.375,1.0,0.5,0.3333333333333333,0.5,0.5,0.3333333333333333,0.3333333333333333,0.4117647058823529,0.4444444444444444,0.6666666666666666,0.3868312757201646,0.39988632010690833,0.39170608601436485
recall,0.0,0.1,0.14285714285714285,0.5,0.45454545454545453,0.6666666666666666,0.75,0.25,0.375,0.8333333333333334,0.16666666666666666,0.75,0.0,0.25,0.6666666666666666,0.2857142857142857,0.5714285714285714,0.2222222222222222,0.0,0.3333333333333333,0.6,0.2857142857142857,0.125,0.625,0.5,0.5714285714285714,0.4,0.5833333333333334,0.3333333333333333,0.25,0.3868312757201646,0.3864081289081289,0.3868312757201646
support,6.0,10.0,7.0,6.0,11.0,9.0,8.0,8.0,8.0,6.0,6.0,8.0,10.0,8.0,9.0,7.0,7.0,9.0,6.0,9.0,5.0,7.0,8.0,8.0,8.0,7.0,10.0,12.0,12.0,8.0,243.0,243.0,243.0
