,acerolas,apples,apricots,avocados,bananas,blackberries,blueberries,cantaloupes,cherries,coconuts,figs,grapefruits,grapes,guava,kiwifruit,lemons,limes,mangos,olives,oranges,passionfruit,peaches,pears,pineapples,plums,pomegranates,raspberries,strawberries,tomatoes,watermelons,micro avg,macro avg,weighted avg
f1-score,0.3157894736842105,0.11111111111111112,0.0,0.0,0.22222222222222224,0.3157894736842105,0.6666666666666666,0.0,0.0,0.4444444444444444,0.0,0.2857142857142857,0.0,0.0,0.1818181818181818,0.0,0.1111111111111111,0.13333333333333333,0.0,0.3333333333333333,0.0,0.0,0.11111111111111112,0.0,0.0,0.19047619047619047,0.10000000000000002,0.0,0.0,0.0,0.13168724279835392,0.11743069795701372,0.1163833014385321
precision,0.2307692307692308,0.125,0.0,0.0,0.1346153846153846,0.3,1.0,0.0,0.0,0.6666666666666666,0.0,0.2307692307692308,0.0,0.0,0.5,0.0,0.09090909090909093,0.14285714285714285,0.0,0.6666666666666666,0.0,0.0,0.1,0.0,0.0,0.14285714285714285,0.1,0.0,0.0,0.0,0.13168724279835392,0.1477036852036852,0.14708131374798042
recall,0.5,0.1,0.0,0.0,0.6363636363636364,0.3333333333333333,0.5,0.0,0.0,0.3333333333333333,0.0,0.375,0.0,0.0,0.1111111111111111,0.0,0.14285714285714285,0.125,0.0,0.2222222222222222,0.0,0.0,0.125,0.0,0.0,0.2857142857142857,0.1,0.0,0.0,0.0,0.13168724279835392,0.12966450216450215,0.13168724279835392
support,6.0,10.0,7.0,6.0,11.0,9.0,8.0,8.0,8.0,6.0,6.0,8.0,10.0,8.0,9.0,7.0,7.0,8.0,6.0,9.0,5.0,7.0,8.0,9.0,8.0,7.0,10.0,12.0,12.0,8.0,243.0,243.0,243.0
f1-score,0.14285714285714288,0.0,0.0,0.0,0.2500000000000001,0.2857142857142857,0.6666666666666666,0.14285714285714288,0.0,0.16666666666666666,0.0,0.13333333333333333,0.10526315789473684,0.0,0.30769230769230765,0.13333333333333333,0.0,0.0,0.2,0.5714285714285714,0.0,0.0,0.13333333333333333,0.0,0.2352941176470588,0.14285714285714285,0.3333333333333333,0.0,0.2727272727272727,0.0,0.13991769547325106,0.14077859361141093,0.14968955394938652
precision,0.125,0.0,0.0,0.0,0.4,0.4,1.0,0.16666666666666666,0.0,0.16666666666666666,0.0,0.14285714285714285,0.060606060606060615,0.0,0.5,0.125,0.0,0.0,0.25,0.8,0.0,0.0,0.14285714285714285,0.0,0.2222222222222222,0.14285714285714285,0.375,0.0,0.3,0.0,0.13991769547325106,0.1773244348244348,0.19003245268677368
recall,0.16666666666666666,0.0,0.0,0.0,0.18181818181818185,0.2222222222222222,0.5,0.125,0.0,0.16666666666666666,0.0,0.125,0.4,0.0,0.2222222222222222,0.14285714285714285,0.0,0.0,0.16666666666666666,0.4444444444444444,0.0,0.0,0.125,0.0,0.25,0.14285714285714285,0.3,0.0,0.25,0.0,0.13991769547325106,0.13104737854737855,0.13991769547325106
support,6.0,10.0,7.0,6.0,11.0,9.0,8.0,8.0,8.0,6.0,6.0,8.0,10.0,8.0,9.0,7.0,7.0,9.0,6.0,9.0,5.0,7.0,8.0,8.0,8.0,7.0,10.0,12.0,12.0,8.0,243.0,243.0,243.0
f1-score,0.1818181818181818,0.0,0.125,0.14285714285714288,0.0,0.3846153846153846,0.6666666666666666,0.13333333333333333,0.0,0.2222222222222222,0.0,0.13333333333333333,0.0,0.0,0.2857142857142857,0.2,0.16666666666666666,0.206896551724138,0.0,0.3333333333333333,0.0,0.2352941176470588,0.0,0.0,0.1176470588235294,0.19047619047619047,0.2857142857142857,0.1904761904761905,0.0,0.1176470588235294,0.14814814814814814,0.14399040014151573,0.14440476071645778
precision,0.2,0.0,0.1111111111111111,0.125,0.0,0.29411764705882354,1.0,0.14285714285714285,0.0,0.3333333333333333,0.0,0.14285714285714285,0.0,0.0,0.4,0.3333333333333333,0.2,0.15,0.0,0.6666666666666666,0.0,0.14814814814814814,0.0,0.0,0.1111111111111111,0.14285714285714285,0.5,0.2222222222222222,0.0,0.1111111111111111,0.14814814814814814,0.17782420375557628,0.18035129918451145
recall,0.16666666666666666,0.0,0.14285714285714285,0.16666666666666666,0.0,0.5555555555555556,0.5,0.125,0.0,0.16666666666666666,0.0,0.125,0.0,0.0,0.2222222222222222,0.14285714285714285,0.14285714285714285,0.3333333333333333,0.0,0.2222222222222222,0.0,0.5714285714285714,0.0,0.0,0.125,0.2857142857142857,0.2,0.16666666666666666,0.0,0.125,0.14814814814814814,0.14952380952380953,0.14814814814814814
support,6.0,10.0,7.0,6.0,11.0,9.0,8.0,8.0,8.0,6.0,6.0,8.0,10.0,8.0,9.0,7.0,7.0,9.0,6.0,9.0,5.0,7.0,8.0,8.0,8.0,7.0,10.0,12.0,12.0,8.0,243.0,243.0,243.0
f1-score,0.14285714285714288,0.0,0.5454545454545454,0.4,0.0,0.4,0.4615384615384615,0.4166666666666667,0.15384615384615385,0.4615384615384615,0.0,0.0,0.0,0.1090909090909091,0.35294117647058826,0.18181818181818185,0.0,0.0,0.15384615384615385,0.42857142857142855,0.0,0.0,0.1176470588235294,0.16666666666666669,0.4615384615384615,0.0,0.15384615384615385,0.2857142857142857,0.2105263157894737,0.08695652173913045,0.1851851851851852,0.18970215819387984,0.18981726628885165
precision,0.125,0.0,0.75,0.5,0.0,0.5,0.6,0.3125,0.2,0.42857142857142855,0.0,0.0,0.0,0.06382978723404255,0.375,0.25,0.0,0.0,0.14285714285714285,0.6,0.0,0.0,0.1111111111111111,0.13333333333333333,0.6,0.0,0.3333333333333333,0.3333333333333333,0.2857142857142857,0.06666666666666668,0.1851851851851852,0.22370834740515588,0.2265363650640772
recall,0.16666666666666666,0.0,0.42857142857142855,0.3333333333333333,0.0,0.3333333333333333,0.375,0.625,0.125,0.5,0.0,0.0,0.0,0.375,0.3333333333333333,0.14285714285714285,0.0,0.0,0.16666666666666666,0.3333333333333333,0.0,0.0,0.125,0.2222222222222222,0.375,0.0,0.1,0.25,0.16666666666666666,0.125,0.1851851851851852,0.18673280423280425,0.1851851851851852
support,6.0,10.0,7.0,6.0,11.0,9.0,8.0,8.0,8.0,6.0,6.0,8.0,10.0,8.0,9.0,7.0,7.0,8.0,6.0,9.0,5.0,7.0,8.0,9.0,8.0,7.0,10.0,12.0,12.0,8.0,243.0,243.0,243.0
f1-score,0.14285714285714288,0.051948051948051945,0.0,0.2,0.0,0.27272727272727276,0.6153846153846154,0.18181818181818182,0.0,0.0,0.0,0.0,0.0,0.18181818181818182,0.3157894736842105,0.18181818181818182,0.13333333333333333,0.19999999999999998,0.0,0.16666666666666666,0.1818181818181818,0.3157894736842105,0.18181818181818182,0.0,0.14285714285714288,0.0,0.0909090909090909,0.25,0.0,0.1,0.13168724279835392,0.13024510577142157,0.13019593935773274
precision,0.125,0.029850746268656716,0.0,0.25,0.0,0.23076923076923078,0.8,0.14285714285714285,0.0,0.0,0.0,0.0,0.0,0.3333333333333333,0.3,0.25,0.125,0.18181818181818182,0.0,0.3333333333333333,0.16666666666666666,0.25,0.3333333333333333,0.0,0.16666666666666666,0.0,0.08333333333333333,0.5,0.0,0.08333333333333333,0.13168724279835392,0.15617651005710706,0.15999856509806756
recall,0.16666666666666666,0.2,0.0,0.16666666666666666,0.0,0.3333333333333333,0.5,0.25,0.0,0.0,0.0,0.0,0.0,0.125,0.3333333333333333,0.14285714285714285,0.14285714285714285,0.2222222222222222,0.0,0.1111111111111111,0.2,0.42857142857142855,0.125,0.0,0.125,0.0,0.1,0.16666666666666666,0.0,0.125,0.13168724279835392,0.13214285714285715,0.13168724279835392
support,6.0,10.0,7.0,6.0,11.0,9.0,8.0,8.0,8.0,6.0,6.0,8.0,10.0,8.0,9.0,7.0,7.0,9.0,6.0,9.0,5.0,7.0,8.0,8.0,8.0,7.0,10.0,12.0,12.0,8.0,243.0,243.0,243.0
