,mean_fit_time,std_fit_time,mean_score_time,std_score_time,param_C,params,split0_test_score,split1_test_score,split2_test_score,split3_test_score,split4_test_score,mean_test_score,std_test_score,rank_test_score
0,5.681206941604614,0.1517257590853332,0.006815195083618164,0.0014598077052784748,0.001,{'C': 0.001},0.17703349282296652,0.17587939698492464,0.12953367875647667,0.16489361702127658,0.2032967032967033,0.16992790937178168,0.02358094504542789,2
1,5.750116777420044,0.30341437594558673,0.007146358489990234,0.0008207318618245653,0.01,{'C': 0.01},0.19617224880382775,0.19095477386934673,0.15025906735751296,0.16489361702127658,0.14835164835164835,0.1709577754891864,0.020170806756808733,1
2,5.880887651443482,0.33278298337505136,0.007549142837524414,0.0022026867196498832,0.1,{'C': 0.1},0.19138755980861244,0.18592964824120603,0.16062176165803108,0.13297872340425532,0.17582417582417584,0.16992790937178168,0.020968090459361474,2
3,5.804991912841797,0.19574555927475562,0.006556129455566407,0.000841356547671302,1,{'C': 1},0.14832535885167464,0.1306532663316583,0.18134715025906736,0.16489361702127658,0.21428571428571427,0.16683831101956745,0.028401634461548614,4
4,5.588683938980102,0.11304599033881794,0.006724357604980469,0.001322305223494576,10,{'C': 10},0.16267942583732056,0.1507537688442211,0.13471502590673576,0.17553191489361702,0.1978021978021978,0.16374871266735325,0.02113395108334897,5
