,mean_fit_time,std_fit_time,mean_score_time,std_score_time,param_n_estimators,params,split0_test_score,split1_test_score,split2_test_score,split3_test_score,split4_test_score,mean_test_score,std_test_score,rank_test_score
0,3.129178047180176,0.1034539010295664,0.09645266532897949,0.0057906642876325585,200,{'n_estimators': 200},0.48325358851674644,0.5829145728643216,0.5181347150259067,0.5851063829787234,0.5384615384615384,0.5406797116374872,0.03949029893326055,9
1,6.438965654373169,0.20774556126443683,0.18164258003234862,0.01045828412148017,400,{'n_estimators': 400},0.5311004784688995,0.5879396984924623,0.5233160621761658,0.5585106382978723,0.554945054945055,0.5509783728115345,0.023044716080985118,3
2,9.729816579818726,0.30678941669562687,0.31123909950256345,0.018217969714774542,600,{'n_estimators': 600},0.5406698564593302,0.5577889447236181,0.533678756476684,0.5851063829787234,0.5439560439560439,0.5520082389289392,0.01804311619252695,2
3,13.062368774414063,0.10874564251582901,0.3868566036224365,0.021222966601365897,800,{'n_estimators': 800},0.5406698564593302,0.5979899497487438,0.5233160621761658,0.574468085106383,0.5274725274725275,0.553038105046344,0.028880119039918734,1
4,16.239671802520753,0.21219160763985623,0.48305835723876955,0.018691851556545607,1000,{'n_estimators': 1000},0.5119617224880383,0.5778894472361809,0.5181347150259067,0.5691489361702128,0.532967032967033,0.5417095777548918,0.02700579161123309,8
5,19.19342713356018,0.09232628675232461,0.586155366897583,0.018246930552555392,1200,{'n_estimators': 1200},0.5406698564593302,0.5628140703517588,0.5129533678756477,0.5585106382978723,0.554945054945055,0.5458290422245108,0.018066368967482954,5
6,22.261047172546387,0.3019398842400913,0.7054419994354248,0.049962068524575055,1400,{'n_estimators': 1400},0.5311004784688995,0.5628140703517588,0.5233160621761658,0.5585106382978723,0.5384615384615384,0.5427394438722966,0.015437730440651642,7
7,25.1903865814209,0.4672388202416915,0.7418259620666504,0.040338999835156646,1600,{'n_estimators': 1600},0.5263157894736842,0.5628140703517588,0.5233160621761658,0.5797872340425532,0.5384615384615384,0.5458290422245108,0.021800563635920072,5
8,25.97512831687927,0.270371844328837,0.8047207355499267,0.03060609591160998,1800,{'n_estimators': 1800},0.5311004784688995,0.5728643216080402,0.5233160621761658,0.5691489361702128,0.5494505494505495,0.548918640576725,0.019885453155490992,4
