,mean_fit_time,std_fit_time,mean_score_time,std_score_time,param_n_neighbors,params,split0_test_score,split1_test_score,split2_test_score,split3_test_score,split4_test_score,mean_test_score,std_test_score,rank_test_score
0,0.0627932071685791,0.003491417127531804,0.20337281227111817,0.011585482053086845,1,{'n_neighbors': 1},0.1674641148325359,0.22110552763819097,0.19689119170984457,0.15425531914893617,0.15384615384615385,0.1791967044284243,0.026319406064556596,1
1,0.06683168411254883,0.00526882875760881,0.2184922218322754,0.012450398213536315,2,{'n_neighbors': 2},0.15789473684210525,0.16080402010050251,0.19170984455958548,0.12234042553191489,0.13186813186813187,0.15345005149330587,0.024103417914830717,7
2,0.06678495407104493,0.006711848377086586,0.22339730262756347,0.009406759620554928,3,{'n_neighbors': 3},0.1291866028708134,0.17587939698492464,0.16062176165803108,0.13829787234042554,0.13736263736263737,0.14830072090628219,0.017506761612538158,10
3,0.07007622718811035,0.005181085628357936,0.23710198402404786,0.016099769127187084,4,{'n_neighbors': 4},0.11961722488038277,0.18090452261306533,0.16580310880829016,0.13297872340425532,0.15384615384615385,0.15036045314109167,0.022423394069378606,9
4,0.06946215629577637,0.005227733846580864,0.23897190093994142,0.011530293157573153,5,{'n_neighbors': 5},0.1339712918660287,0.19095477386934673,0.17616580310880828,0.16489361702127658,0.14285714285714285,0.16168898043254376,0.021237046673449594,3
5,0.06185703277587891,0.006325768858859066,0.2333611011505127,0.013894337098396773,6,{'n_neighbors': 6},0.1291866028708134,0.20603015075376885,0.14507772020725387,0.1595744680851064,0.12637362637362637,0.15345005149330587,0.029187775908338806,7
6,0.05941858291625977,0.004781601154967841,0.22845277786254883,0.015031821935281839,7,{'n_neighbors': 7},0.1291866028708134,0.22110552763819097,0.14507772020725387,0.15425531914893617,0.12637362637362637,0.15550978372811536,0.034814174616604646,5
7,0.06727833747863769,0.009205472828889994,0.25549707412719724,0.014573457876601683,8,{'n_neighbors': 8},0.14354066985645933,0.22110552763819097,0.17616580310880828,0.14361702127659576,0.15934065934065933,0.16889804325437693,0.029126667137180956,2
8,0.06629047393798829,0.004751057898655031,0.24296269416809083,0.012119236959446014,9,{'n_neighbors': 9},0.1291866028708134,0.22613065326633167,0.15544041450777202,0.11702127659574468,0.14835164835164835,0.15550978372811536,0.03831028608565183,5
9,0.06641707420349122,0.005547508244561531,0.23904023170471192,0.015015934283445876,10,{'n_neighbors': 10},0.13875598086124402,0.22110552763819097,0.14507772020725387,0.1276595744680851,0.16483516483516483,0.1596292481977343,0.03336738184923206,4
